…
``` r
can_cb <- confband(can, lambda = can$lambda[10], level = c(.5, .8, .95))
can_cb
```

    #> An `rt_confidence_band` object.
    #> 
    #> * type = Rt 
    #> * lambda = 8320.382 
    #> * degrees of freedom = 10 
    #> 
    #> # A tibble: 1,253 × 7
    #>      fit `2.5%` `10.0%` `25.0%` `75.0%` `90.0%` `97.5%`
    #>    <dbl>  <dbl>   <dbl>   <dbl>   <dbl>   <dbl>   <dbl>
    #>  1  2.00  0.837    1.24    1.60    2.40    2.76    3.16
    #>  2  1.98  0.922    1.29    1.62    2.34    2.67    3.04
    #>  3  1.96  0.940    1.29    1.61    2.31    2.63    2.98
    #>  4  1.94  0.899    1.26    1.58    2.30    2.62    2.98
    #>  5  1.92  0.832    1.21    1.55    2.30    2.64    3.02
    #>  6  1.91  0.766    1.16    1.51    2.30    2.65    3.05
    #>  7  1.89  0.710    1.12    1.48    2.29    2.66    3.07
    #>  8  1.87  0.661    1.08    1.45    2.29    2.66    3.08
    #>  9  1.85  0.615    1.04    1.43    2.28    2.66    3.09
    #> 10  1.84  0.563    1.00    1.40    2.27    2.67    3.11
    #> # ℹ 1,243 more rows
…
