rtestim Package Vignette • rtestim
…
We also provide functionality for computing approximate confidence
bands for Rt based on normal approximations and the delta method. These
are intended to be fast and to provide some idea of uncertainty, but
they likely don’t have guaranteed coverage.

can_cb <- confband(can, lambda = can$lambda[10], level = c(.5, .8, .95))
can_cb

#> An `rt_confidence_band` object.
#> 
#> * type = Rt 
#> * lambda = 8976.305 
#> * degrees of freedom = 12 
#> 
#> # A tibble: 1,253 × 7
#>      fit  `2.5%` `10.0%` `25.0%` `75.0%` `90.0%` `97.5%`
#>    <dbl>   <dbl>   <dbl>   <dbl>   <dbl>   <dbl>   <dbl>
#>  1  2.05 NaN      NaN     NaN     NaN     NaN     NaN   
#>  2  2.03   1.95     1.97    2.00    2.05    2.08    2.10
#>  3  2.01   1.85     1.91    1.95    2.06    2.11    2.16
#>  4  1.99   1.74     1.83    1.90    2.07    2.15    2.23
#>  5  1.97   1.60     1.73    1.84    2.09    2.21    2.33
#>  6  1.95   1.44     1.62    1.77    2.12    2.28    2.45
#>  7  1.93   1.27     1.50    1.70    2.16    2.36    2.59
#>  8  1.91   1.09     1.38    1.63    2.19    2.45    2.73
#>  9  1.89   0.918    1.26    1.56    2.23    2.53    2.87
#> 10  1.88   0.756    1.14    1.49    2.26    2.61    3.00
#> # ℹ 1,243 more rows
…
